<svg xmlns="http://www.w3.org/2000/svg" viewBox="0 0 225 225" width="225" height="225">
	<style>
		tspan { white-space:pre }
		.shp0 { fill: #787f85 } 
	</style>
	<g id="Layer">
		<path id="Layer" class="shp0" d="M176.73 224.43C181.84 222.55 184.66 216.66 182.79 211.55C182.19 209.85 161.48 188.16 134 160.45L86.2 112.25L134.4 64.45C167.64 31.49 182.91 15.65 183.72 13.46C186.45 5.17 177.69 -2.57 170.07 1.4C165.26 3.98 62.43 106.75 61.71 109.84C61.31 111.34 61.3 113.54 61.69 114.84C62.48 117.55 164.94 221.58 168.93 223.69C171.73 225.11 174.13 225.42 176.73 224.43Z" />
	</g>
</svg>